,date,city,rent,product
0,2022-01-01,Erzincan,2,1830
1,2022-01-02,Adana,6,1147
2,2022-01-03,Uşak,10,1301
3,2022-01-04,Van,2,1776
4,2022-01-05,Yozgat,5,1449
5,2022-01-06,Niğde,5,1015
6,2022-01-07,Çankırı,14,1141
7,2022-01-08,Yalova,7,1636
8,2022-01-09,Düzce,14,1949
9,2022-01-10,Karabük,9,1018
10,2022-01-11,Bursa,15,1706
11,2022-01-12,Zonguldak,3,1849
12,2022-01-13,Düzce,13,1202
13,2022-01-14,Gümüşhane,12,1849
14,2022-01-15,Şanlıurfa,13,1309
15,2022-01-16,Sivas,7,1875
16,2022-01-17,Kilis,14,1693
17,2022-01-18,Karaman,4,1870
18,2022-01-19,Denizli,17,1170
19,2022-01-20,Gümüşhane,4,1988
20,2022-01-21,Kütahya,12,1114
21,2022-01-22,Niğde,17,1505
22,2022-01-23,Ağrı,14,1538
23,2022-01-24,Zonguldak,11,1663
24,2022-01-25,Erzincan,1,1684
25,2022-01-26,Malatya,13,1158
26,2022-01-27,Niğde,2,1269
27,2022-01-28,Muğla,9,1400
28,2022-01-29,Hakkari,4,1128
29,2022-01-30,Muğla,14,1177
30,2022-01-31,Samsun,15,1469
31,2022-02-01,Bingöl,3,1345
32,2022-02-02,Niğde,14,1476
33,2022-02-03,Nevşehir,8,1011
34,2022-02-04,Düzce,6,1036
35,2022-02-05,Kırşehir,16,1081
36,2022-02-06,Afyon,10,1404
37,2022-02-07,Sakarya,14,1121
38,2022-02-08,Muş,15,1622
39,2022-02-09,Kırşehir,15,1305
40,2022-02-10,Bartın,12,1923
41,2022-02-11,Amasya,13,1110
42,2022-02-12,Adana,2,1823
43,2022-02-13,Sakarya,1,1109
44,2022-02-14,Rize,5,1673
45,2022-02-15,Isparta,2,1432
46,2022-02-16,Kayseri,7,1645
47,2022-02-17,Sivas,5,1260
48,2022-02-18,Sinop,5,1046
49,2022-02-19,Kırıkkale,16,1759
50,2022-02-20,Erzurum,4,1885
51,2022-02-21,Niğde,15,1256
52,2022-02-22,Düzce,5,1466
53,2022-02-23,Artvin,9,1947
54,2022-02-24,Aydın,5,1960
55,2022-02-25,Çorum,12,1745
56,2022-02-26,Mardin,3,1978
57,2022-02-27,Samsun,7,1851
58,2022-02-28,Kars,9,1898
59,2022-03-01,Balıkesir,3,1320
60,2022-03-02,Karabük,17,1692
61,2022-03-03,Rize,13,1650
62,2022-03-04,Bursa,3,1525
63,2022-03-05,Antalya,7,1669
64,2022-03-06,Ordu,11,1812
65,2022-03-07,İzmir,7,1647
66,2022-03-08,Bitlis,2,1780
67,2022-03-09,Erzincan,12,1031
68,2022-03-10,Bilecik,3,1631
69,2022-03-11,Amasya,7,1260
70,2022-03-12,Kütahya,3,1599
71,2022-03-13,Kayseri,3,1878
72,2022-03-14,Gaziantep,16,1534
73,2022-03-15,İçel (Mersin),9,1256
74,2022-03-16,Karaman,6,1046
75,2022-03-17,Edirne,8,1433
76,2022-03-18,Sivas,12,1325
77,2022-03-19,Ardahan,10,1503
78,2022-03-20,Şırnak,6,1828
79,2022-03-21,Zonguldak,6,1035
80,2022-03-22,Tokat,11,1226
81,2022-03-23,Bitlis,5,1247
82,2022-03-24,Niğde,4,1121
83,2022-03-25,İzmir,14,1080
84,2022-03-26,Şırnak,8,1104
85,2022-03-27,Edirne,17,1367
86,2022-03-28,Bilecik,6,1077
87,2022-03-29,Kütahya,13,1461
88,2022-03-30,İstanbul,17,1658
89,2022-03-31,Malatya,1,1592
90,2022-04-01,Tokat,11,1482
91,2022-04-02,Ağrı,14,1675
92,2022-04-03,Siirt,1,1888
93,2022-04-04,Niğde,14,1894
94,2022-04-05,Denizli,4,1382
95,2022-04-06,Karaman,1,1342
96,2022-04-07,Tokat,1,1985
97,2022-04-08,Van,8,1683
98,2022-04-09,Kilis,11,1908
99,2022-04-10,Bingöl,11,1850
100,2022-04-11,Kastamonu,12,1779
101,2022-04-12,Mardin,4,1122
102,2022-04-13,Şanlıurfa,14,1931
103,2022-04-14,Karaman,16,1175
104,2022-04-15,Artvin,1,1406
105,2022-04-16,Tekirdağ,9,1887
106,2022-04-17,Artvin,1,1257
107,2022-04-18,Aksaray,5,1814
108,2022-04-19,İzmir,6,1850
109,2022-04-20,Ordu,15,1682
110,2022-04-21,Sivas,11,1177
111,2022-04-22,Van,11,1955
112,2022-04-23,Malatya,10,1578
113,2022-04-24,Van,8,1357
114,2022-04-25,İzmir,17,1772
115,2022-04-26,Mardin,3,1131
116,2022-04-27,Kilis,6,1251
117,2022-04-28,Edirne,1,1680
118,2022-04-29,Erzincan,12,1799
119,2022-04-30,Amasya,2,1811
120,2022-05-01,Gümüşhane,8,1004
121,2022-05-02,İçel (Mersin),5,1526
122,2022-05-03,Kırşehir,9,1864
123,2022-05-04,Bolu,16,1025
124,2022-05-05,Yozgat,14,1160
125,2022-05-06,Çankırı,7,1332
126,2022-05-07,Van,15,1035
127,2022-05-08,Düzce,13,1617
128,2022-05-09,Sivas,10,1095
129,2022-05-10,Bayburt,12,1079
130,2022-05-11,Manisa,8,1276
131,2022-05-12,Kırşehir,9,1949
132,2022-05-13,Kırşehir,3,1720
133,2022-05-14,Bayburt,12,1949
134,2022-05-15,Kars,12,1121
135,2022-05-16,Eskişehir,10,1099
136,2022-05-17,Muğla,14,1979
137,2022-05-18,Mardin,17,1908
138,2022-05-19,Yalova,14,1749
139,2022-05-20,Gaziantep,10,1126
140,2022-05-21,Van,10,1741
141,2022-05-22,Denizli,8,1929
142,2022-05-23,Malatya,6,1197
143,2022-05-24,Çorum,6,1594
144,2022-05-25,Giresun,3,1779
145,2022-05-26,Ordu,6,1101
146,2022-05-27,Karaman,10,1097
147,2022-05-28,Isparta,4,1196
148,2022-05-29,Kars,16,1922
149,2022-05-30,Manisa,3,1970
150,2022-05-31,Diyarbakır,15,1487
151,2022-06-01,Eskişehir,5,1986
152,2022-06-02,Afyon,4,1102
153,2022-06-03,Gümüşhane,17,1405
154,2022-06-04,Artvin,8,1226
155,2022-06-05,Ankara,2,1247
156,2022-06-06,Kayseri,4,1296
157,2022-06-07,Mardin,4,1710
158,2022-06-08,İstanbul,7,1112
159,2022-06-09,Gümüşhane,1,1336
160,2022-06-10,Ordu,8,1515
161,2022-06-11,Bolu,10,1537
162,2022-06-12,Aydın,3,1514
163,2022-06-13,Gümüşhane,10,1160
164,2022-06-14,Balıkesir,10,1950
165,2022-06-15,Kırıkkale,8,1617
166,2022-06-16,Sivas,11,1663
167,2022-06-17,Karaman,8,1714
168,2022-06-18,Edirne,5,1615
169,2022-06-19,Sivas,11,1339
170,2022-06-20,Kayseri,12,1070
171,2022-06-21,Düzce,16,1576
172,2022-06-22,Samsun,10,1347
173,2022-06-23,Manisa,7,1528
174,2022-06-24,Ağrı,11,1277
175,2022-06-25,Karabük,16,1842
176,2022-06-26,Tunceli,8,1916
177,2022-06-27,Kastamonu,13,1888
178,2022-06-28,Erzincan,12,1497
179,2022-06-29,Muş,9,1367
180,2022-06-30,Bartın,16,1135
181,2022-07-01,Gümüşhane,16,1978
182,2022-07-02,Sivas,3,1330
183,2022-07-03,Kırşehir,6,1392
184,2022-07-04,Konya,5,1692
185,2022-07-05,Kütahya,3,1785
186,2022-07-06,Zonguldak,12,1781
187,2022-07-07,Nevşehir,9,1473
188,2022-07-08,Afyon,2,1058
189,2022-07-09,Nevşehir,2,1022
190,2022-07-10,Siirt,16,1657
191,2022-07-11,Karabük,11,1931
192,2022-07-12,Çanakkale,14,1409
193,2022-07-13,Şanlıurfa,16,1179
194,2022-07-14,Ankara,15,1490
195,2022-07-15,Kars,9,1583
196,2022-07-16,Zonguldak,3,1709
197,2022-07-17,Kars,14,1981
198,2022-07-18,Uşak,13,1906
199,2022-07-19,Mardin,6,1073
200,2022-07-20,Sakarya,17,1658
201,2022-07-21,Kırklareli,2,1497
202,2022-07-22,Ankara,8,1294
203,2022-07-23,Nevşehir,2,1859
204,2022-07-24,Erzurum,4,1780
205,2022-07-25,Amasya,6,1178
206,2022-07-26,Eskişehir,4,1704
207,2022-07-27,Balıkesir,2,1735
208,2022-07-28,Konya,11,1754
209,2022-07-29,İzmir,5,1381
210,2022-07-30,Mardin,6,1121
211,2022-07-31,Osmaniye,17,1080
212,2022-08-01,Kahramanmaraş,4,1237
213,2022-08-02,Karaman,2,1249
214,2022-08-03,Bayburt,14,1079
215,2022-08-04,Muğla,8,1947
216,2022-08-05,Manisa,7,1784
217,2022-08-06,Diyarbakır,6,1086
218,2022-08-07,Kayseri,1,1740
219,2022-08-08,Gaziantep,7,1424
220,2022-08-09,Aydın,16,1918
221,2022-08-10,Samsun,14,1047
222,2022-08-11,Sakarya,13,1923
223,2022-08-12,Yozgat,17,1901
224,2022-08-13,Hatay,2,1425
225,2022-08-14,Kahramanmaraş,13,1396
226,2022-08-15,Siirt,10,1180
227,2022-08-16,İçel (Mersin),13,1543
228,2022-08-17,Aksaray,7,1864
229,2022-08-18,Karaman,13,1871
230,2022-08-19,Van,8,1455
231,2022-08-20,Bartın,15,1175
232,2022-08-21,Rize,14,1171
233,2022-08-22,Tokat,17,1705
234,2022-08-23,Eskişehir,2,1485
235,2022-08-24,Bilecik,13,1685
236,2022-08-25,Tekirdağ,12,1502
237,2022-08-26,Aksaray,3,1519
238,2022-08-27,Bilecik,3,1740
239,2022-08-28,Yozgat,10,1275
240,2022-08-29,Gaziantep,15,1722
241,2022-08-30,Uşak,8,1924
242,2022-08-31,Sivas,12,1183
243,2022-09-01,Bolu,5,1606
244,2022-09-02,Uşak,8,1013
245,2022-09-03,Bingöl,7,1512
246,2022-09-04,Çorum,12,1970
247,2022-09-05,İçel (Mersin),14,1390
248,2022-09-06,Balıkesir,6,1763
249,2022-09-07,Afyon,17,1051
250,2022-09-08,Ağrı,16,1579
251,2022-09-09,Kütahya,5,1588
252,2022-09-10,Elazığ,3,1532
253,2022-09-11,Ordu,15,1419
254,2022-09-12,Antalya,12,1796
255,2022-09-13,Samsun,15,1889
256,2022-09-14,Kahramanmaraş,12,1007
257,2022-09-15,Mardin,14,1700
258,2022-09-16,İçel (Mersin),13,1346
259,2022-09-17,Yozgat,13,1066
260,2022-09-18,Van,15,1495
261,2022-09-19,Batman,17,1027
262,2022-09-20,Bitlis,4,1153
263,2022-09-21,Kars,11,1571
264,2022-09-22,Hatay,13,1698
265,2022-09-23,Kırklareli,3,1765
266,2022-09-24,Düzce,4,1509
267,2022-09-25,Konya,14,1334
268,2022-09-26,Iğdır,15,1776
269,2022-09-27,Çanakkale,1,1814
270,2022-09-28,Kocaeli,14,1826
271,2022-09-29,Balıkesir,13,1836
272,2022-09-30,Denizli,15,1945
273,2022-10-01,Yalova,5,1024
274,2022-10-02,Düzce,16,1464
275,2022-10-03,Batman,1,1759
276,2022-10-04,Kilis,12,1920
277,2022-10-05,Karaman,16,1565
278,2022-10-06,Tunceli,17,1558
279,2022-10-07,Rize,5,1167
280,2022-10-08,İçel (Mersin),5,1033
281,2022-10-09,Çanakkale,15,1003
282,2022-10-10,Kastamonu,7,1396
283,2022-10-11,Karabük,12,1975
284,2022-10-12,Çanakkale,9,1074
285,2022-10-13,İçel (Mersin),8,1952
286,2022-10-14,Niğde,16,1386
287,2022-10-15,Muğla,7,1637
288,2022-10-16,Bolu,8,1657
289,2022-10-17,Antalya,3,1599
290,2022-10-18,Siirt,7,1681
291,2022-10-19,Uşak,14,1410
292,2022-10-20,Tokat,14,1735
293,2022-10-21,Amasya,12,1660
294,2022-10-22,Erzurum,12,1168
295,2022-10-23,Bartın,9,1558
296,2022-10-24,Gümüşhane,13,1442
297,2022-10-25,Kütahya,7,1807
298,2022-10-26,Kırıkkale,16,1399
299,2022-10-27,Düzce,1,1737
300,2022-10-28,Bayburt,10,1647
301,2022-10-29,Eskişehir,12,1774
302,2022-10-30,Ordu,5,1678
303,2022-10-31,Kastamonu,17,1539
304,2022-11-01,Antalya,6,1397
305,2022-11-02,Samsun,3,1580
306,2022-11-03,Nevşehir,8,1351
307,2022-11-04,Kayseri,10,1667
308,2022-11-05,Ankara,1,1493
309,2022-11-06,Konya,5,1237
310,2022-11-07,Kırıkkale,3,1722
311,2022-11-08,Çankırı,2,1191
312,2022-11-09,Diyarbakır,11,1761
313,2022-11-10,Kırşehir,3,1420
314,2022-11-11,Bitlis,3,1557
315,2022-11-12,Bartın,13,1015
316,2022-11-13,Kütahya,12,1801
317,2022-11-14,Ankara,6,1245
318,2022-11-15,Tokat,8,1353
319,2022-11-16,Hakkari,14,1592
320,2022-11-17,Erzurum,16,1394
321,2022-11-18,Zonguldak,4,1596
322,2022-11-19,Eskişehir,7,1433
323,2022-11-20,Tekirdağ,7,1258
324,2022-11-21,Kütahya,7,1247
325,2022-11-22,Çanakkale,12,1522
326,2022-11-23,Muş,14,1048
327,2022-11-24,Yozgat,2,1561
328,2022-11-25,Sakarya,1,1169
329,2022-11-26,Kars,14,1715
330,2022-11-27,Eskişehir,14,1376
331,2022-11-28,Tekirdağ,8,1970
332,2022-11-29,Bilecik,4,1953
333,2022-11-30,Manisa,4,1039
334,2022-12-01,Burdur,13,1509
335,2022-12-02,Burdur,2,1227
336,2022-12-03,Giresun,5,1577
337,2022-12-04,Bilecik,4,1870
338,2022-12-05,Tunceli,16,1717
339,2022-12-06,Bilecik,17,1929
340,2022-12-07,Amasya,13,1377
341,2022-12-08,Bitlis,2,1616
342,2022-12-09,Antalya,13,1641
343,2022-12-10,Ankara,11,1091
344,2022-12-11,Bartın,15,1554
345,2022-12-12,Siirt,7,1986
346,2022-12-13,Niğde,14,1273
347,2022-12-14,Edirne,2,1369
348,2022-12-15,Hakkari,3,1253
349,2022-12-16,Kayseri,3,1206
350,2022-12-17,Gaziantep,3,1304
351,2022-12-18,Afyon,9,1129
352,2022-12-19,Zonguldak,6,1755
353,2022-12-20,Çanakkale,16,1032
354,2022-12-21,Ağrı,5,1616
355,2022-12-22,Karaman,11,1664
356,2022-12-23,İçel (Mersin),3,1814
357,2022-12-24,Tokat,11,1267
358,2022-12-25,Afyon,17,1876
359,2022-12-26,Sinop,3,1278
360,2022-12-27,Bolu,2,1147
361,2022-12-28,İçel (Mersin),9,1408
362,2022-12-29,Yozgat,2,1435
363,2022-12-30,Muş,14,1804
